{
  "full_name": "Full Name",
  "email": "email@host.com",
  "project_name": "Project Name",
  "project_slug": "{{cookiecutter.project_name.lower().replace(' ', '_').replace('-', '_') }}",
  "project_version": "0.1.0",
  "project_short_description": "Short description.",
  "python_min_version": ["3.8", "3.9", "3.10", "3.11", "3.12"],
  "command_line_interface": ["No CLI", "Click"],
  "git_username": "{{cookiecutter.full_name.lower().replace(' ', '_').replace('-', '_') }}",
  "git_url": "https://github.com/{{cookiecutter.git_username}}/{{cookiecutter.project_slug}}",
  "license": [
    "GPL-3.0-plus",
    "BSD-3-Clause",
    "MIT",
    "Apache-2.0",
    "Proprietary"
  ]
}
